{
  "href" : "https://api.spotify.com/v1/artists/0OdUWJ0sBjDrqHygGUXeCF/albums?offset=0&limit=20&album_type=single,album,compilation,appears_on,ep",
  "items" : [ {
    "album_type" : "album",
    "artists" : [ {
      "external_urls" : {
        "spotify" : "https://open.spotify.com/artist/0OdUWJ0sBjDrqHygGUXeCF"
      },
      "href" : "https://api.spotify.com/v1/artists/0OdUWJ0sBjDrqHygGUXeCF",
      "id" : "0OdUWJ0sBjDrqHygGUXeCF",
      "name" : "Band of Horses",
      "type" : "artist",
      "uri" : "spotify:artist:0OdUWJ0sBjDrqHygGUXeCF"
    } ],
    "available_markets" : [ "CA", "MX", "US" ],
    "external_urls" : {
      "spotify" : "https://open.spotify.com/album/4xBayAng8qIv3227mj3xjN"
    },
    "href" : "https://api.spotify.com/v1/albums/4xBayAng8qIv3227mj3xjN",
    "id" : "4xBayAng8qIv3227mj3xjN",
    "images" : [ {
      "height" : 640,
      "url" : "https://i.scdn.co/image/d5a038ae5087553bb3e07c3b74a1d4e39a784227",
      "width" : 640
    }, {
      "height" : 300,
      "url" : "https://i.scdn.co/image/1bdcd2397f0a4c93c895c9445e51d6983758ed59",
      "width" : 300
    }, {
      "height" : 64,
      "url" : "https://i.scdn.co/image/a3433bb5f5377049c0c14cf19722628ddd074684",
      "width" : 64
    } ],
    "name" : "Why Are You OK",
    "type" : "album",
    "uri" : "spotify:album:4xBayAng8qIv3227mj3xjN"
  }, {
    "album_type" : "album",
    "artists" : [ {
      "external_urls" : {
        "spotify" : "https://open.spotify.com/artist/0OdUWJ0sBjDrqHygGUXeCF"
      },
      "href" : "https://api.spotify.com/v1/artists/0OdUWJ0sBjDrqHygGUXeCF",
      "id" : "0OdUWJ0sBjDrqHygGUXeCF",
      "name" : "Band of Horses",
      "type" : "artist",
      "uri" : "spotify:artist:0OdUWJ0sBjDrqHygGUXeCF"
    } ],
    "available_markets" : [ "AD", "AR", "AT", "AU", "BE", "BG", "BO", "BR", "CH", "CL", "CO", "CR", "CY", "CZ", "DE", "DK", "DO", "EC", "EE", "ES", "FI", "FR", "GB", "GR", "GT", "HK", "HN", "HU", "ID", "IE", "IS", "IT", "LI", "LT", "LU", "LV", "MC", "MT", "MY", "NI", "NL", "NO", "NZ", "PA", "PE", "PH", "PL", "PT", "PY", "SE", "SG", "SK", "SV", "TR", "TW", "UY" ],
    "external_urls" : {
      "spotify" : "https://open.spotify.com/album/3zkYn6D7BES929rafJfONa"
    },
    "href" : "https://api.spotify.com/v1/albums/3zkYn6D7BES929rafJfONa",
    "id" : "3zkYn6D7BES929rafJfONa",
    "images" : [ {
      "height" : 640,
      "url" : "https://i.scdn.co/image/37d79c7641fa0978421c908d6eeefb13e29cd8a7",
      "width" : 640
    }, {
      "height" : 300,
      "url" : "https://i.scdn.co/image/e8ac1f1991dbd51bf3f80f3fc59e00275a0b4506",
      "width" : 300
    }, {
      "height" : 64,
      "url" : "https://i.scdn.co/image/4946ce2dc3426963af3ce49ec294bcb3ef0e8728",
      "width" : 64
    } ],
    "name" : "Why Are You OK",
    "type" : "album",
    "uri" : "spotify:album:3zkYn6D7BES929rafJfONa"
  }, {
    "album_type" : "album",
    "artists" : [ {
      "external_urls" : {
        "spotify" : "https://open.spotify.com/artist/0OdUWJ0sBjDrqHygGUXeCF"
      },
      "href" : "https://api.spotify.com/v1/artists/0OdUWJ0sBjDrqHygGUXeCF",
      "id" : "0OdUWJ0sBjDrqHygGUXeCF",
      "name" : "Band of Horses",
      "type" : "artist",
      "uri" : "spotify:artist:0OdUWJ0sBjDrqHygGUXeCF"
    } ],
    "available_markets" : [ "JP" ],
    "external_urls" : {
      "spotify" : "https://open.spotify.com/album/2gYoPtUkgobS85ShWg16lR"
    },
    "href" : "https://api.spotify.com/v1/albums/2gYoPtUkgobS85ShWg16lR",
    "id" : "2gYoPtUkgobS85ShWg16lR",
    "images" : [ {
      "height" : 640,
      "url" : "https://i.scdn.co/image/0c6bcc88fc3118f46a8ae706098ac08b666f5db2",
      "width" : 640
    }, {
      "height" : 300,
      "url" : "https://i.scdn.co/image/e537a6bcf00f099ccd9a2cebe99436110745f9da",
      "width" : 300
    }, {
      "height" : 64,
      "url" : "https://i.scdn.co/image/a867ef8fc1015858aa63ad285528421fe278d1b4",
      "width" : 64
    } ],
    "name" : "Why Are You OK",
    "type" : "album",
    "uri" : "spotify:album:2gYoPtUkgobS85ShWg16lR"
  }, {
    "album_type" : "album",
    "artists" : [ {
      "external_urls" : {
        "spotify" : "https://open.spotify.com/artist/0OdUWJ0sBjDrqHygGUXeCF"
      },
      "href" : "https://api.spotify.com/v1/artists/0OdUWJ0sBjDrqHygGUXeCF",
      "id" : "0OdUWJ0sBjDrqHygGUXeCF",
      "name" : "Band of Horses",
      "type" : "artist",
      "uri" : "spotify:artist:0OdUWJ0sBjDrqHygGUXeCF"
    } ],
    "available_markets" : [ "AD", "AR", "AT", "AU", "BE", "BG", "BO", "BR", "CA", "CH", "CL", "CO", "CR", "CY", "CZ", "DE", "DK", "DO", "EC", "EE", "ES", "FI", "FR", "GB", "GR", "GT", "HN", "HU", "IE", "IS", "IT", "LI", "LT", "LU", "LV", "MC", "MT", "MX", "NI", "NL", "NO", "NZ", "PA", "PE", "PL", "PT", "PY", "SE", "SK", "SV", "TR", "US", "UY" ],
    "external_urls" : {
      "spotify" : "https://open.spotify.com/album/6N3W6VPGBBxZcYajhZB75a"
    },
    "href" : "https://api.spotify.com/v1/albums/6N3W6VPGBBxZcYajhZB75a",
    "id" : "6N3W6VPGBBxZcYajhZB75a",
    "images" : [ {
      "height" : 640,
      "url" : "https://i.scdn.co/image/703f0bdf297ca5f8c241bb218eb0515a1a299647",
      "width" : 640
    }, {
      "height" : 300,
      "url" : "https://i.scdn.co/image/683a2b57c9e7060f657681179cbbaceae9229da6",
      "width" : 300
    }, {
      "height" : 64,
      "url" : "https://i.scdn.co/image/93f15a1402e43a431971d7e1e0deaee177a93645",
      "width" : 64
    } ],
    "name" : "Acoustic at The Ryman (Live)",
    "type" : "album",
    "uri" : "spotify:album:6N3W6VPGBBxZcYajhZB75a"
  }, {
    "album_type" : "album",
    "artists" : [ {
      "external_urls" : {
        "spotify" : "https://open.spotify.com/artist/0OdUWJ0sBjDrqHygGUXeCF"
      },
      "href" : "https://api.spotify.com/v1/artists/0OdUWJ0sBjDrqHygGUXeCF",
      "id" : "0OdUWJ0sBjDrqHygGUXeCF",
      "name" : "Band of Horses",
      "type" : "artist",
      "uri" : "spotify:artist:0OdUWJ0sBjDrqHygGUXeCF"
    } ],
    "available_markets" : [ "AD", "AR", "AT", "AU", "BE", "BG", "BO", "CA", "CH", "CL", "CO", "CR", "CY", "CZ", "DE", "DK", "DO", "EC", "EE", "ES", "FI", "FR", "GB", "GR", "GT", "HK", "HN", "HU", "ID", "IE", "IS", "IT", "LI", "LT", "LU", "LV", "MC", "MT", "MX", "MY", "NI", "NL", "NO", "NZ", "PA", "PE", "PH", "PL", "PT", "PY", "SE", "SG", "SK", "SV", "TR", "TW", "US", "UY" ],
    "external_urls" : {
      "spotify" : "https://open.spotify.com/album/5XGwgWYQQK8tHwoNuLMCP9"
    },
    "href" : "https://api.spotify.com/v1/albums/5XGwgWYQQK8tHwoNuLMCP9",
    "id" : "5XGwgWYQQK8tHwoNuLMCP9",
    "images" : [ {
      "height" : 637,
      "url" : "https://i.scdn.co/image/af66dba68972496183bf9b41292d8114b6e716dc",
      "width" : 640
    }, {
      "height" : 299,
      "url" : "https://i.scdn.co/image/aef295f304151ef03b34a00925533ae354e13421",
      "width" : 300
    }, {
      "height" : 64,
      "url" : "https://i.scdn.co/image/4438f4ce26a0a8ef16260dc4c3dc0830154b0bd7",
      "width" : 64
    } ],
    "name" : "Mirage Rock",
    "type" : "album",
    "uri" : "spotify:album:5XGwgWYQQK8tHwoNuLMCP9"
  }, {
    "album_type" : "album",
    "artists" : [ {
      "external_urls" : {
        "spotify" : "https://open.spotify.com/artist/0OdUWJ0sBjDrqHygGUXeCF"
      },
      "href" : "https://api.spotify.com/v1/artists/0OdUWJ0sBjDrqHygGUXeCF",
      "id" : "0OdUWJ0sBjDrqHygGUXeCF",
      "name" : "Band of Horses",
      "type" : "artist",
      "uri" : "spotify:artist:0OdUWJ0sBjDrqHygGUXeCF"
    } ],
    "available_markets" : [ "HK", "ID", "JP", "PH", "SG" ],
    "external_urls" : {
      "spotify" : "https://open.spotify.com/album/5J5nntsfliaVhSFjLU5oRr"
    },
    "href" : "https://api.spotify.com/v1/albums/5J5nntsfliaVhSFjLU5oRr",
    "id" : "5J5nntsfliaVhSFjLU5oRr",
    "images" : [ {
      "height" : 637,
      "url" : "https://i.scdn.co/image/18dd63c4881a7206ad35e3c8a1b95fa2022fac13",
      "width" : 640
    }, {
      "height" : 299,
      "url" : "https://i.scdn.co/image/0a049a52195a112e7f3f805f0ca4a3ff98280420",
      "width" : 300
    }, {
      "height" : 64,
      "url" : "https://i.scdn.co/image/2a8c5e2929bbecb865fef18de31c55146e821ff7",
      "width" : 64
    } ],
    "name" : "Mirage Rock",
    "type" : "album",
    "uri" : "spotify:album:5J5nntsfliaVhSFjLU5oRr"
  }, {
    "album_type" : "album",
    "artists" : [ {
      "external_urls" : {
        "spotify" : "https://open.spotify.com/artist/0OdUWJ0sBjDrqHygGUXeCF"
      },
      "href" : "https://api.spotify.com/v1/artists/0OdUWJ0sBjDrqHygGUXeCF",
      "id" : "0OdUWJ0sBjDrqHygGUXeCF",
      "name" : "Band of Horses",
      "type" : "artist",
      "uri" : "spotify:artist:0OdUWJ0sBjDrqHygGUXeCF"
    } ],
    "available_markets" : [ "JP" ],
    "external_urls" : {
      "spotify" : "https://open.spotify.com/album/0X1zwlvbZFCP9qSdqoWx1H"
    },
    "href" : "https://api.spotify.com/v1/albums/0X1zwlvbZFCP9qSdqoWx1H",
    "id" : "0X1zwlvbZFCP9qSdqoWx1H",
    "images" : [ {
      "height" : 637,
      "url" : "https://i.scdn.co/image/81c6d6ccecf97e64a54cb4097396762f0d2e9d32",
      "width" : 640
    }, {
      "height" : 299,
      "url" : "https://i.scdn.co/image/1f14f1150c2ad114b3bcf4dfd8f592deae6a7a26",
      "width" : 300
    }, {
      "height" : 64,
      "url" : "https://i.scdn.co/image/917c6eafd14638705e73b21f0d55d22ed47e38b4",
      "width" : 64
    } ],
    "name" : "Mirage Rock",
    "type" : "album",
    "uri" : "spotify:album:0X1zwlvbZFCP9qSdqoWx1H"
  }, {
    "album_type" : "album",
    "artists" : [ {
      "external_urls" : {
        "spotify" : "https://open.spotify.com/artist/0OdUWJ0sBjDrqHygGUXeCF"
      },
      "href" : "https://api.spotify.com/v1/artists/0OdUWJ0sBjDrqHygGUXeCF",
      "id" : "0OdUWJ0sBjDrqHygGUXeCF",
      "name" : "Band of Horses",
      "type" : "artist",
      "uri" : "spotify:artist:0OdUWJ0sBjDrqHygGUXeCF"
    } ],
    "available_markets" : [ "BR" ],
    "external_urls" : {
      "spotify" : "https://open.spotify.com/album/41gqjEKZzNCCE5XSxjfSTq"
    },
    "href" : "https://api.spotify.com/v1/albums/41gqjEKZzNCCE5XSxjfSTq",
    "id" : "41gqjEKZzNCCE5XSxjfSTq",
    "images" : [ {
      "height" : 640,
      "url" : "https://i.scdn.co/image/1e84d5841f62b425a85bea645b859f8bf114dea9",
      "width" : 640
    }, {
      "height" : 300,
      "url" : "https://i.scdn.co/image/a812361f8f0560db30205b237fd4caad57ab2ef8",
      "width" : 300
    }, {
      "height" : 64,
      "url" : "https://i.scdn.co/image/a78794e35ebc5cc63a1d75a605ca8df184f12552",
      "width" : 64
    } ],
    "name" : "Mirage Rock",
    "type" : "album",
    "uri" : "spotify:album:41gqjEKZzNCCE5XSxjfSTq"
  }, {
    "album_type" : "album",
    "artists" : [ {
      "external_urls" : {
        "spotify" : "https://open.spotify.com/artist/0OdUWJ0sBjDrqHygGUXeCF"
      },
      "href" : "https://api.spotify.com/v1/artists/0OdUWJ0sBjDrqHygGUXeCF",
      "id" : "0OdUWJ0sBjDrqHygGUXeCF",
      "name" : "Band of Horses",
      "type" : "artist",
      "uri" : "spotify:artist:0OdUWJ0sBjDrqHygGUXeCF"
    } ],
    "available_markets" : [ "AD", "AR", "AT", "AU", "BE", "BG", "BO", "BR", "CA", "CH", "CL", "CO", "CR", "CY", "CZ", "DE", "DK", "DO", "EC", "EE", "ES", "FI", "FR", "GB", "GR", "GT", "HK", "HN", "HU", "ID", "IE", "IS", "IT", "LI", "LT", "LU", "LV", "MC", "MT", "MX", "MY", "NI", "NL", "NO", "NZ", "PA", "PE", "PH", "PL", "PT", "PY", "SE", "SG", "SK", "SV", "TR", "TW", "US", "UY" ],
    "external_urls" : {
      "spotify" : "https://open.spotify.com/album/08fkw9uDP2KET6cPIl74Xo"
    },
    "href" : "https://api.spotify.com/v1/albums/08fkw9uDP2KET6cPIl74Xo",
    "id" : "08fkw9uDP2KET6cPIl74Xo",
    "images" : [ {
      "height" : 581,
      "url" : "https://i.scdn.co/image/9751f0e2ae0170970e005470101b9840fafb8465",
      "width" : 640
    }, {
      "height" : 272,
      "url" : "https://i.scdn.co/image/3243eb1052135709b6c7a6c693039631e0558f87",
      "width" : 300
    }, {
      "height" : 58,
      "url" : "https://i.scdn.co/image/576e604e3f9727a6957f334e5bd0f410c36afed9",
      "width" : 64
    } ],
    "name" : "Infinite Arms",
    "type" : "album",
    "uri" : "spotify:album:08fkw9uDP2KET6cPIl74Xo"
  }, {
    "album_type" : "album",
    "artists" : [ {
      "external_urls" : {
        "spotify" : "https://open.spotify.com/artist/0OdUWJ0sBjDrqHygGUXeCF"
      },
      "href" : "https://api.spotify.com/v1/artists/0OdUWJ0sBjDrqHygGUXeCF",
      "id" : "0OdUWJ0sBjDrqHygGUXeCF",
      "name" : "Band of Horses",
      "type" : "artist",
      "uri" : "spotify:artist:0OdUWJ0sBjDrqHygGUXeCF"
    } ],
    "available_markets" : [ "BR" ],
    "external_urls" : {
      "spotify" : "https://open.spotify.com/album/4MJf5L1S8FupN2CHqAAZIp"
    },
    "href" : "https://api.spotify.com/v1/albums/4MJf5L1S8FupN2CHqAAZIp",
    "id" : "4MJf5L1S8FupN2CHqAAZIp",
    "images" : [ {
      "height" : 640,
      "url" : "https://i.scdn.co/image/903c37e287946d4a3d725463c317bbb888eac59d",
      "width" : 640
    }, {
      "height" : 300,
      "url" : "https://i.scdn.co/image/c22b25c08866bde870e88d75d8cfdb4bbb72a7ab",
      "width" : 300
    }, {
      "height" : 64,
      "url" : "https://i.scdn.co/image/0935ecb301d6ee8210379626bfd7e2cba0aa72e6",
      "width" : 64
    } ],
    "name" : "Infinite Arms",
    "type" : "album",
    "uri" : "spotify:album:4MJf5L1S8FupN2CHqAAZIp"
  }, {
    "album_type" : "album",
    "artists" : [ {
      "external_urls" : {
        "spotify" : "https://open.spotify.com/artist/0OdUWJ0sBjDrqHygGUXeCF"
      },
      "href" : "https://api.spotify.com/v1/artists/0OdUWJ0sBjDrqHygGUXeCF",
      "id" : "0OdUWJ0sBjDrqHygGUXeCF",
      "name" : "Band of Horses",
      "type" : "artist",
      "uri" : "spotify:artist:0OdUWJ0sBjDrqHygGUXeCF"
    } ],
    "available_markets" : [ "FR", "GB", "IE" ],
    "external_urls" : {
      "spotify" : "https://open.spotify.com/album/3rNHgtH2XDgigp4X4KTDLq"
    },
    "href" : "https://api.spotify.com/v1/albums/3rNHgtH2XDgigp4X4KTDLq",
    "id" : "3rNHgtH2XDgigp4X4KTDLq",
    "images" : [ {
      "height" : 640,
      "url" : "https://i.scdn.co/image/2bee81bd2c43881178bf32878c0285e69f417742",
      "width" : 640
    }, {
      "height" : 300,
      "url" : "https://i.scdn.co/image/b555e247d96590d174aaa29d425bb2f5226b2340",
      "width" : 300
    }, {
      "height" : 64,
      "url" : "https://i.scdn.co/image/c77185d9868f4641a36121f1d37c4e8cb33a735a",
      "width" : 64
    } ],
    "name" : "Cease To Begin",
    "type" : "album",
    "uri" : "spotify:album:3rNHgtH2XDgigp4X4KTDLq"
  }, {
    "album_type" : "album",
    "artists" : [ {
      "external_urls" : {
        "spotify" : "https://open.spotify.com/artist/0OdUWJ0sBjDrqHygGUXeCF"
      },
      "href" : "https://api.spotify.com/v1/artists/0OdUWJ0sBjDrqHygGUXeCF",
      "id" : "0OdUWJ0sBjDrqHygGUXeCF",
      "name" : "Band of Horses",
      "type" : "artist",
      "uri" : "spotify:artist:0OdUWJ0sBjDrqHygGUXeCF"
    } ],
    "available_markets" : [ "AD", "AR", "AT", "AU", "BE", "BG", "BO", "BR", "CA", "CH", "CL", "CO", "CR", "CY", "CZ", "DE", "DK", "DO", "EC", "EE", "ES", "FI", "GR", "GT", "HK", "HN", "HU", "ID", "IS", "IT", "JP", "LI", "LT", "LU", "LV", "MC", "MT", "MX", "MY", "NI", "NL", "NO", "NZ", "PA", "PE", "PH", "PL", "PT", "PY", "SE", "SG", "SK", "SV", "TR", "TW", "US", "UY" ],
    "external_urls" : {
      "spotify" : "https://open.spotify.com/album/4a1jgSYZGMTR6Yp6IiSkbO"
    },
    "href" : "https://api.spotify.com/v1/albums/4a1jgSYZGMTR6Yp6IiSkbO",
    "id" : "4a1jgSYZGMTR6Yp6IiSkbO",
    "images" : [ {
      "height" : 639,
      "url" : "https://i.scdn.co/image/41d668c48236558d0bffaae8a5a7e003d5ba9645",
      "width" : 640
    }, {
      "height" : 300,
      "url" : "https://i.scdn.co/image/5d34f1e84ea35cb83378d5d92cf99f2dfb83a905",
      "width" : 300
    }, {
      "height" : 64,
      "url" : "https://i.scdn.co/image/29cea1a6e96fb8a25dd86f17aaf7b0ea4cc8434c",
      "width" : 64
    } ],
    "name" : "Cease To Begin",
    "type" : "album",
    "uri" : "spotify:album:4a1jgSYZGMTR6Yp6IiSkbO"
  }, {
    "album_type" : "album",
    "artists" : [ {
      "external_urls" : {
        "spotify" : "https://open.spotify.com/artist/0OdUWJ0sBjDrqHygGUXeCF"
      },
      "href" : "https://api.spotify.com/v1/artists/0OdUWJ0sBjDrqHygGUXeCF",
      "id" : "0OdUWJ0sBjDrqHygGUXeCF",
      "name" : "Band of Horses",
      "type" : "artist",
      "uri" : "spotify:artist:0OdUWJ0sBjDrqHygGUXeCF"
    } ],
    "available_markets" : [ "FR", "GB", "IE" ],
    "external_urls" : {
      "spotify" : "https://open.spotify.com/album/2HQ5DO7xiGSAixNdbj0dAw"
    },
    "href" : "https://api.spotify.com/v1/albums/2HQ5DO7xiGSAixNdbj0dAw",
    "id" : "2HQ5DO7xiGSAixNdbj0dAw",
    "images" : [ {
      "height" : 640,
      "url" : "https://i.scdn.co/image/5831d521c4fe61c48d37d26987714371fce53619",
      "width" : 640
    }, {
      "height" : 300,
      "url" : "https://i.scdn.co/image/c6f1a040c4efd494bd941767a97cda91ddd97b28",
      "width" : 300
    }, {
      "height" : 64,
      "url" : "https://i.scdn.co/image/e91236024bc08d927a121c309a001161aea3df15",
      "width" : 64
    } ],
    "name" : "Everything All The Time",
    "type" : "album",
    "uri" : "spotify:album:2HQ5DO7xiGSAixNdbj0dAw"
  }, {
    "album_type" : "album",
    "artists" : [ {
      "external_urls" : {
        "spotify" : "https://open.spotify.com/artist/0OdUWJ0sBjDrqHygGUXeCF"
      },
      "href" : "https://api.spotify.com/v1/artists/0OdUWJ0sBjDrqHygGUXeCF",
      "id" : "0OdUWJ0sBjDrqHygGUXeCF",
      "name" : "Band of Horses",
      "type" : "artist",
      "uri" : "spotify:artist:0OdUWJ0sBjDrqHygGUXeCF"
    } ],
    "available_markets" : [ "AD", "AR", "AT", "AU", "BE", "BG", "BO", "BR", "CA", "CH", "CL", "CO", "CR", "CY", "CZ", "DE", "DK", "DO", "EC", "EE", "ES", "FI", "GR", "GT", "HK", "HN", "HU", "ID", "IS", "IT", "JP", "LI", "LT", "LU", "LV", "MC", "MT", "MX", "MY", "NI", "NL", "NO", "NZ", "PA", "PE", "PH", "PL", "PT", "PY", "SE", "SG", "SK", "SV", "TR", "TW", "US", "UY" ],
    "external_urls" : {
      "spotify" : "https://open.spotify.com/album/5uMfshtC2Jwqui0NUyUYIL"
    },
    "href" : "https://api.spotify.com/v1/albums/5uMfshtC2Jwqui0NUyUYIL",
    "id" : "5uMfshtC2Jwqui0NUyUYIL",
    "images" : [ {
      "height" : 640,
      "url" : "https://i.scdn.co/image/07fbaee837dda8295adeabc456b4e9af944c9ae0",
      "width" : 640
    }, {
      "height" : 300,
      "url" : "https://i.scdn.co/image/ecb1247ccee42c5f90b57b709506cb065bafa4d7",
      "width" : 300
    }, {
      "height" : 64,
      "url" : "https://i.scdn.co/image/3d3277e25634fcac1900740ee46d1f4aaa71118f",
      "width" : 64
    } ],
    "name" : "Everything All The Time",
    "type" : "album",
    "uri" : "spotify:album:5uMfshtC2Jwqui0NUyUYIL"
  }, {
    "album_type" : "single",
    "artists" : [ {
      "external_urls" : {
        "spotify" : "https://open.spotify.com/artist/0OdUWJ0sBjDrqHygGUXeCF"
      },
      "href" : "https://api.spotify.com/v1/artists/0OdUWJ0sBjDrqHygGUXeCF",
      "id" : "0OdUWJ0sBjDrqHygGUXeCF",
      "name" : "Band of Horses",
      "type" : "artist",
      "uri" : "spotify:artist:0OdUWJ0sBjDrqHygGUXeCF"
    } ],
    "available_markets" : [ "FR", "GB", "IE" ],
    "external_urls" : {
      "spotify" : "https://open.spotify.com/album/1CxgjUw5HWSszMKeqxZMww"
    },
    "href" : "https://api.spotify.com/v1/albums/1CxgjUw5HWSszMKeqxZMww",
    "id" : "1CxgjUw5HWSszMKeqxZMww",
    "images" : [ {
      "height" : 640,
      "url" : "https://i.scdn.co/image/7ac28fc49f89e9997dd6ff9b5d81ba6e4a8b1b14",
      "width" : 640
    }, {
      "height" : 300,
      "url" : "https://i.scdn.co/image/de616111733c1af1972ddedf18746056230248a3",
      "width" : 300
    }, {
      "height" : 64,
      "url" : "https://i.scdn.co/image/8eff2f7c0af94fd8be8cfb0a5c9a2f5b27b7544f",
      "width" : 64
    } ],
    "name" : "The Funeral (Excision Remix)",
    "type" : "album",
    "uri" : "spotify:album:1CxgjUw5HWSszMKeqxZMww"
  }, {
    "album_type" : "single",
    "artists" : [ {
      "external_urls" : {
        "spotify" : "https://open.spotify.com/artist/0OdUWJ0sBjDrqHygGUXeCF"
      },
      "href" : "https://api.spotify.com/v1/artists/0OdUWJ0sBjDrqHygGUXeCF",
      "id" : "0OdUWJ0sBjDrqHygGUXeCF",
      "name" : "Band of Horses",
      "type" : "artist",
      "uri" : "spotify:artist:0OdUWJ0sBjDrqHygGUXeCF"
    } ],
    "available_markets" : [ "AD", "AR", "AT", "AU", "BE", "BG", "BO", "BR", "CA", "CH", "CL", "CO", "CR", "CY", "CZ", "DE", "DK", "DO", "EC", "EE", "ES", "FI", "GR", "GT", "HK", "HN", "HU", "ID", "IS", "IT", "JP", "LI", "LT", "LU", "LV", "MC", "MT", "MX", "MY", "NI", "NL", "NO", "NZ", "PA", "PE", "PH", "PL", "PT", "PY", "SE", "SG", "SK", "SV", "TR", "TW", "US", "UY" ],
    "external_urls" : {
      "spotify" : "https://open.spotify.com/album/3qdwPanKCuUNV7n5KFVbTI"
    },
    "href" : "https://api.spotify.com/v1/albums/3qdwPanKCuUNV7n5KFVbTI",
    "id" : "3qdwPanKCuUNV7n5KFVbTI",
    "images" : [ {
      "height" : 640,
      "url" : "https://i.scdn.co/image/5e22865034ee75673ac257ba09b07a0303db0c52",
      "width" : 640
    }, {
      "height" : 300,
      "url" : "https://i.scdn.co/image/c01d08e9d101720b0fcf678c2f8618d8acb7d6a1",
      "width" : 300
    }, {
      "height" : 64,
      "url" : "https://i.scdn.co/image/7295d9ec8c3f43239c8ef891812c7985c7ce25bc",
      "width" : 64
    } ],
    "name" : "The Funeral (Excision Remix)",
    "type" : "album",
    "uri" : "spotify:album:3qdwPanKCuUNV7n5KFVbTI"
  }, {
    "album_type" : "single",
    "artists" : [ {
      "external_urls" : {
        "spotify" : "https://open.spotify.com/artist/3W4xM5XYtUp4ifYYPVKVdk"
      },
      "href" : "https://api.spotify.com/v1/artists/3W4xM5XYtUp4ifYYPVKVdk",
      "id" : "3W4xM5XYtUp4ifYYPVKVdk",
      "name" : "Grandaddy",
      "type" : "artist",
      "uri" : "spotify:artist:3W4xM5XYtUp4ifYYPVKVdk"
    }, {
      "external_urls" : {
        "spotify" : "https://open.spotify.com/artist/0OdUWJ0sBjDrqHygGUXeCF"
      },
      "href" : "https://api.spotify.com/v1/artists/0OdUWJ0sBjDrqHygGUXeCF",
      "id" : "0OdUWJ0sBjDrqHygGUXeCF",
      "name" : "Band of Horses",
      "type" : "artist",
      "uri" : "spotify:artist:0OdUWJ0sBjDrqHygGUXeCF"
    } ],
    "available_markets" : [ "AD", "AR", "AT", "AU", "BE", "BG", "BO", "BR", "CA", "CH", "CL", "CO", "CR", "CY", "CZ", "DE", "DK", "DO", "EC", "EE", "ES", "FI", "FR", "GB", "GR", "GT", "HK", "HN", "HU", "ID", "IE", "IS", "IT", "JP", "LI", "LT", "LU", "LV", "MC", "MT", "MX", "MY", "NI", "NL", "NO", "NZ", "PA", "PE", "PH", "PL", "PT", "PY", "SE", "SG", "SK", "SV", "TR", "TW", "US", "UY" ],
    "external_urls" : {
      "spotify" : "https://open.spotify.com/album/4TtWACdEWAxpTHMciEQ2nX"
    },
    "href" : "https://api.spotify.com/v1/albums/4TtWACdEWAxpTHMciEQ2nX",
    "id" : "4TtWACdEWAxpTHMciEQ2nX",
    "images" : [ {
      "height" : 640,
      "url" : "https://i.scdn.co/image/baf229ce9f1c6dc1ff1452b794a6375224737aa1",
      "width" : 640
    }, {
      "height" : 300,
      "url" : "https://i.scdn.co/image/5f85c2e66c6a2711f733e6ef2a943ac3af958fd4",
      "width" : 300
    }, {
      "height" : 64,
      "url" : "https://i.scdn.co/image/fc61cbb499c4fcf315b5ff818277db28a727884a",
      "width" : 64
    } ],
    "name" : "Hang an Ornament",
    "type" : "album",
    "uri" : "spotify:album:4TtWACdEWAxpTHMciEQ2nX"
  }, {
    "album_type" : "single",
    "artists" : [ {
      "external_urls" : {
        "spotify" : "https://open.spotify.com/artist/0OdUWJ0sBjDrqHygGUXeCF"
      },
      "href" : "https://api.spotify.com/v1/artists/0OdUWJ0sBjDrqHygGUXeCF",
      "id" : "0OdUWJ0sBjDrqHygGUXeCF",
      "name" : "Band of Horses",
      "type" : "artist",
      "uri" : "spotify:artist:0OdUWJ0sBjDrqHygGUXeCF"
    } ],
    "available_markets" : [ "AD", "AR", "AT", "AU", "BE", "BG", "BO", "BR", "CA", "CH", "CL", "CO", "CR", "CY", "CZ", "DE", "DK", "DO", "EC", "EE", "ES", "FI", "FR", "GB", "GR", "GT", "HN", "HU", "IE", "IS", "IT", "LI", "LT", "LU", "LV", "MC", "MT", "MX", "NI", "NL", "NO", "NZ", "PA", "PE", "PL", "PT", "PY", "SE", "SK", "SV", "TR", "US", "UY" ],
    "external_urls" : {
      "spotify" : "https://open.spotify.com/album/6BsDkxbgGrPzFDTGiWhLNA"
    },
    "href" : "https://api.spotify.com/v1/albums/6BsDkxbgGrPzFDTGiWhLNA",
    "id" : "6BsDkxbgGrPzFDTGiWhLNA",
    "images" : [ {
      "height" : 640,
      "url" : "https://i.scdn.co/image/5ee5396906ad820ab6eba729cb14ac58b1162ec2",
      "width" : 640
    }, {
      "height" : 300,
      "url" : "https://i.scdn.co/image/51365c5775056999ff84dfeeb7475ccfdec74a3c",
      "width" : 300
    }, {
      "height" : 64,
      "url" : "https://i.scdn.co/image/5130c2bfd2bcc2dcf35628ac61f75170f801492d",
      "width" : 64
    } ],
    "name" : "Neighbor",
    "type" : "album",
    "uri" : "spotify:album:6BsDkxbgGrPzFDTGiWhLNA"
  }, {
    "album_type" : "single",
    "artists" : [ {
      "external_urls" : {
        "spotify" : "https://open.spotify.com/artist/0OdUWJ0sBjDrqHygGUXeCF"
      },
      "href" : "https://api.spotify.com/v1/artists/0OdUWJ0sBjDrqHygGUXeCF",
      "id" : "0OdUWJ0sBjDrqHygGUXeCF",
      "name" : "Band of Horses",
      "type" : "artist",
      "uri" : "spotify:artist:0OdUWJ0sBjDrqHygGUXeCF"
    } ],
    "available_markets" : [ "AD", "AR", "AT", "AU", "BE", "BG", "BO", "BR", "CA", "CH", "CL", "CO", "CR", "CY", "CZ", "DE", "DK", "DO", "EC", "EE", "ES", "FI", "FR", "GB", "GR", "GT", "HN", "HU", "IE", "IS", "IT", "LI", "LT", "LU", "LV", "MC", "MT", "MX", "NI", "NL", "NO", "NZ", "PA", "PE", "PL", "PT", "PY", "SE", "SK", "SV", "TR", "US", "UY" ],
    "external_urls" : {
      "spotify" : "https://open.spotify.com/album/0FR7MukQAEAaMrMDcwQbZL"
    },
    "href" : "https://api.spotify.com/v1/albums/0FR7MukQAEAaMrMDcwQbZL",
    "id" : "0FR7MukQAEAaMrMDcwQbZL",
    "images" : [ {
      "height" : 640,
      "url" : "https://i.scdn.co/image/1ec7700519a038b4ca4fe94e2c4a97b4f6d7957d",
      "width" : 640
    }, {
      "height" : 300,
      "url" : "https://i.scdn.co/image/5ec304907cb3b08597432fc9b4d55180fcb3618d",
      "width" : 300
    }, {
      "height" : 64,
      "url" : "https://i.scdn.co/image/3de6e5b2b9fc36322bf439ee060f2a868b4a0cdf",
      "width" : 64
    } ],
    "name" : "Detlef Schrempf",
    "type" : "album",
    "uri" : "spotify:album:0FR7MukQAEAaMrMDcwQbZL"
  }, {
    "album_type" : "single",
    "artists" : [ {
      "external_urls" : {
        "spotify" : "https://open.spotify.com/artist/0OdUWJ0sBjDrqHygGUXeCF"
      },
      "href" : "https://api.spotify.com/v1/artists/0OdUWJ0sBjDrqHygGUXeCF",
      "id" : "0OdUWJ0sBjDrqHygGUXeCF",
      "name" : "Band of Horses",
      "type" : "artist",
      "uri" : "spotify:artist:0OdUWJ0sBjDrqHygGUXeCF"
    } ],
    "available_markets" : [ "AD", "AR", "AT", "AU", "BE", "BG", "BO", "BR", "CA", "CH", "CL", "CO", "CR", "CY", "CZ", "DE", "DK", "DO", "EC", "EE", "ES", "FI", "FR", "GB", "GR", "GT", "HK", "HN", "HU", "ID", "IE", "IS", "IT", "LI", "LT", "LU", "LV", "MC", "MT", "MX", "MY", "NI", "NL", "NO", "NZ", "PA", "PE", "PH", "PL", "PT", "PY", "SE", "SG", "SK", "SV", "TR", "TW", "US", "UY" ],
    "external_urls" : {
      "spotify" : "https://open.spotify.com/album/2j80e8guCnpYphNJW8hSaX"
    },
    "href" : "https://api.spotify.com/v1/albums/2j80e8guCnpYphNJW8hSaX",
    "id" : "2j80e8guCnpYphNJW8hSaX",
    "images" : [ {
      "height" : 640,
      "url" : "https://i.scdn.co/image/f33cb2d76a7241eae723ef14adc06142a42bf487",
      "width" : 640
    }, {
      "height" : 300,
      "url" : "https://i.scdn.co/image/e02dd84f14cee134d57ed89129657174d73ace07",
      "width" : 300
    }, {
      "height" : 64,
      "url" : "https://i.scdn.co/image/cfd4d67b5b580b3e7da48515d555ff5a548ca963",
      "width" : 64
    } ],
    "name" : "Spotify Sessions",
    "type" : "album",
    "uri" : "spotify:album:2j80e8guCnpYphNJW8hSaX"
  } ],
  "limit" : 20,
  "next" : "https://api.spotify.com/v1/artists/0OdUWJ0sBjDrqHygGUXeCF/albums?offset=20&limit=20&album_type=single,album,compilation,appears_on,ep",
  "offset" : 0,
  "previous" : null,
  "total" : 43
}